%YAML 1.1
%TAG !u! tag:unity3d.com,2011:
--- !u!1045 &1
EditorBuildSettings:
  m_ObjectHideFlags: 0
  serializedVersion: 2
  m_Scenes:
  - enabled: 1
    path: Assets/Scenes/MainMenu.unity
    guid: 7609eb30368883e4f9393beeb37a2e9e
  - enabled: 1
    path: Assets/Scenes/Denstorff_FinalGameLevel1.unity
    guid: 306a93ad357327e45a8dc729069e90da
  - enabled: 1
    path: Assets/Scenes/Denstorff_FinalGameLevel2.unity
    guid: fd00dc7c9a8864fe998731dbe43d4da5
  - enabled: 1
    path: Assets/Scenes/Denstorff_FinalGameLevel3.unity
    guid: 5a5226c65e3cf435793e0a2a417f6113
  - enabled: 1
    path: Assets/Scenes/Denstorff_FinalGameLevel4.unity
    guid: 3fbee4b254aae394b9f6bb432ba39415
